(1 "\nFunzione da disegnare(racchiusa tra doppi apici): ")
(2 "\nInizio calcolo funzione > 0: ")
(3 "\nFine calcolo funzione > 0: ")
(4 "\nIntervallo (es.: 0.1): ")
(5 "\nDisegno funzione concluso con successo.")
